^C:\USERS\משתמש\CHESS_PROJECT\CHSEE\CHSEE\BOARD.CPP
/c /ZI /JMC /nologo /W3 /WX- /diagnostics:column /sdl /Od /Oy- /D _MBCS /Gm- /EHsc /RTC1 /MDd /GS /fp:precise /permissive- /Zc:wchar_t /Zc:forScope /Zc:inline /Fo"DEBUG\\" /Fd"DEBUG\VC142.PDB" /Gd /TP /analyze- /FC C:\USERS\משתמש\CHESS_PROJECT\CHSEE\CHSEE\BOARD.CPP
^C:\USERS\משתמש\CHESS_PROJECT\CHSEE\CHSEE\REGULAR.CPP
/c /ZI /JMC /nologo /W3 /WX- /diagnostics:column /sdl /Od /Oy- /D _MBCS /Gm- /EHsc /RTC1 /MDd /GS /fp:precise /permissive- /Zc:wchar_t /Zc:forScope /Zc:inline /Fo"DEBUG\\" /Fd"DEBUG\VC142.PDB" /Gd /TP /analyze- /FC C:\USERS\משתמש\CHESS_PROJECT\CHSEE\CHSEE\REGULAR.CPP
^C:\USERS\משתמש\CHESS_PROJECT\CHSEE\CHSEE\STDAFX.CPP
/c /ZI /JMC /nologo /W3 /WX- /diagnostics:column /sdl /Od /Oy- /D _MBCS /Gm- /EHsc /RTC1 /MDd /GS /fp:precise /permissive- /Zc:wchar_t /Zc:forScope /Zc:inline /Fo"DEBUG\\" /Fd"DEBUG\VC142.PDB" /Gd /TP /analyze- /FC C:\USERS\משתמש\CHESS_PROJECT\CHSEE\CHSEE\STDAFX.CPP
^C:\USERS\משתמש\CHESS_PROJECT\CHSEE\CHSEE\POINT.CPP
/c /ZI /JMC /nologo /W3 /WX- /diagnostics:column /sdl /Od /Oy- /D _MBCS /Gm- /EHsc /RTC1 /MDd /GS /fp:precise /permissive- /Zc:wchar_t /Zc:forScope /Zc:inline /Fo"DEBUG\\" /Fd"DEBUG\VC142.PDB" /Gd /TP /analyze- /FC C:\USERS\משתמש\CHESS_PROJECT\CHSEE\CHSEE\POINT.CPP
^C:\USERS\משתמש\CHESS_PROJECT\CHSEE\CHSEE\BISHOP.CPP
/c /ZI /JMC /nologo /W3 /WX- /diagnostics:column /sdl /Od /Oy- /D _MBCS /Gm- /EHsc /RTC1 /MDd /GS /fp:precise /permissive- /Zc:wchar_t /Zc:forScope /Zc:inline /Fo"DEBUG\\" /Fd"DEBUG\VC142.PDB" /Gd /TP /analyze- /FC C:\USERS\משתמש\CHESS_PROJECT\CHSEE\CHSEE\BISHOP.CPP
^C:\USERS\משתמש\CHESS_PROJECT\CHSEE\CHSEE\KING.CPP
/c /ZI /JMC /nologo /W3 /WX- /diagnostics:column /sdl /Od /Oy- /D _MBCS /Gm- /EHsc /RTC1 /MDd /GS /fp:precise /permissive- /Zc:wchar_t /Zc:forScope /Zc:inline /Fo"DEBUG\\" /Fd"DEBUG\VC142.PDB" /Gd /TP /analyze- /FC C:\USERS\משתמש\CHESS_PROJECT\CHSEE\CHSEE\KING.CPP
^C:\USERS\משתמש\CHESS_PROJECT\CHSEE\CHSEE\KNIGHT.CPP
/c /ZI /JMC /nologo /W3 /WX- /diagnostics:column /sdl /Od /Oy- /D _MBCS /Gm- /EHsc /RTC1 /MDd /GS /fp:precise /permissive- /Zc:wchar_t /Zc:forScope /Zc:inline /Fo"DEBUG\\" /Fd"DEBUG\VC142.PDB" /Gd /TP /analyze- /FC C:\USERS\משתמש\CHESS_PROJECT\CHSEE\CHSEE\KNIGHT.CPP
^C:\USERS\משתמש\CHESS_PROJECT\CHSEE\CHSEE\PICECONTROL.CPP
/c /ZI /JMC /nologo /W3 /WX- /diagnostics:column /sdl /Od /Oy- /D _MBCS /Gm- /EHsc /RTC1 /MDd /GS /fp:precise /permissive- /Zc:wchar_t /Zc:forScope /Zc:inline /Fo"DEBUG\\" /Fd"DEBUG\VC142.PDB" /Gd /TP /analyze- /FC C:\USERS\משתמש\CHESS_PROJECT\CHSEE\CHSEE\PICECONTROL.CPP
^C:\USERS\משתמש\CHESS_PROJECT\CHSEE\CHSEE\QUEEN.CPP
/c /ZI /JMC /nologo /W3 /WX- /diagnostics:column /sdl /Od /Oy- /D _MBCS /Gm- /EHsc /RTC1 /MDd /GS /fp:precise /permissive- /Zc:wchar_t /Zc:forScope /Zc:inline /Fo"DEBUG\\" /Fd"DEBUG\VC142.PDB" /Gd /TP /analyze- /FC C:\USERS\משתמש\CHESS_PROJECT\CHSEE\CHSEE\QUEEN.CPP
^C:\USERS\משתמש\CHESS_PROJECT\CHSEE\CHSEE\ROOK.CPP
/c /ZI /JMC /nologo /W3 /WX- /diagnostics:column /sdl /Od /Oy- /D _MBCS /Gm- /EHsc /RTC1 /MDd /GS /fp:precise /permissive- /Zc:wchar_t /Zc:forScope /Zc:inline /Fo"DEBUG\\" /Fd"DEBUG\VC142.PDB" /Gd /TP /analyze- /FC C:\USERS\משתמש\CHESS_PROJECT\CHSEE\CHSEE\ROOK.CPP
^C:\USERS\משתמש\CHESS_PROJECT\CHSEE\CHSEE\SOURCE.CPP
/c /ZI /JMC /nologo /W3 /WX- /diagnostics:column /sdl /Od /Oy- /D _MBCS /Gm- /EHsc /RTC1 /MDd /GS /fp:precise /permissive- /Zc:wchar_t /Zc:forScope /Zc:inline /Fo"DEBUG\\" /Fd"DEBUG\VC142.PDB" /Gd /TP /analyze- /FC C:\USERS\משתמש\CHESS_PROJECT\CHSEE\CHSEE\SOURCE.CPP
^C:\USERS\משתמש\CHESS_PROJECT\CHSEE\CHSEE\PAWN.CPP
/c /ZI /JMC /nologo /W3 /WX- /diagnostics:column /sdl /Od /Oy- /D _MBCS /Gm- /EHsc /RTC1 /MDd /GS /fp:precise /permissive- /Zc:wchar_t /Zc:forScope /Zc:inline /Fo"DEBUG\\" /Fd"DEBUG\VC142.PDB" /Gd /TP /analyze- /FC C:\USERS\משתמש\CHESS_PROJECT\CHSEE\CHSEE\PAWN.CPP
^C:\USERS\משתמש\CHESS_PROJECT\CHSEE\CHSEE\MAINGAME.CPP
/c /ZI /JMC /nologo /W3 /WX- /diagnostics:column /sdl /Od /Oy- /D _MBCS /Gm- /EHsc /RTC1 /MDd /GS /fp:precise /permissive- /Zc:wchar_t /Zc:forScope /Zc:inline /Fo"DEBUG\\" /Fd"DEBUG\VC142.PDB" /Gd /TP /analyze- /FC C:\USERS\משתמש\CHESS_PROJECT\CHSEE\CHSEE\MAINGAME.CPP
