^C:\USERS\משתמש\CHESS_PROJECT\CHSEE\CHSEE\BISHOP.CPP|C:\USERS\משתמש\CHESS_PROJECT\CHSEE\CHSEE\BOARD.CPP|C:\USERS\משתמש\CHESS_PROJECT\CHSEE\CHSEE\KING.CPP|C:\USERS\משתמש\CHESS_PROJECT\CHSEE\CHSEE\KNIGHT.CPP|C:\USERS\משתמש\CHESS_PROJECT\CHSEE\CHSEE\MAINGAME.CPP|C:\USERS\משתמש\CHESS_PROJECT\CHSEE\CHSEE\PAWN.CPP|C:\USERS\משתמש\CHESS_PROJECT\CHSEE\CHSEE\PICECONTROL.CPP|C:\USERS\משתמש\CHESS_PROJECT\CHSEE\CHSEE\POINT.CPP|C:\USERS\משתמש\CHESS_PROJECT\CHSEE\CHSEE\QUEEN.CPP|C:\USERS\משתמש\CHESS_PROJECT\CHSEE\CHSEE\REGULAR.CPP|C:\USERS\משתמש\CHESS_PROJECT\CHSEE\CHSEE\ROOK.CPP|C:\USERS\משתמש\CHESS_PROJECT\CHSEE\CHSEE\SOURCE.CPP|C:\USERS\משתמש\CHESS_PROJECT\CHSEE\CHSEE\STDAFX.CPP
C:\USERS\משתמש\CHESS_PROJECT\CHSEE\CHSEE\DEBUG\VC142.PDB
C:\USERS\משתמש\CHESS_PROJECT\CHSEE\CHSEE\DEBUG\VC142.IDB
C:\USERS\משתמש\CHESS_PROJECT\CHSEE\CHSEE\DEBUG\STDAFX.OBJ
C:\USERS\משתמש\CHESS_PROJECT\CHSEE\CHSEE\DEBUG\REGULAR.OBJ
C:\USERS\משתמש\CHESS_PROJECT\CHSEE\CHSEE\DEBUG\POINT.OBJ
C:\USERS\משתמש\CHESS_PROJECT\CHSEE\CHSEE\DEBUG\KING.OBJ
C:\USERS\משתמש\CHESS_PROJECT\CHSEE\CHSEE\DEBUG\BOARD.OBJ
^C:\USERS\משתמש\CHESS_PROJECT\CHSEE\CHSEE\BOARD.CPP
C:\USERS\משתמש\CHESS_PROJECT\CHSEE\CHSEE\DEBUG\BOARD.OBJ
^C:\USERS\משתמש\CHESS_PROJECT\CHSEE\CHSEE\BISHOP.CPP|C:\USERS\משתמש\CHESS_PROJECT\CHSEE\CHSEE\KING.CPP|C:\USERS\משתמש\CHESS_PROJECT\CHSEE\CHSEE\KNIGHT.CPP|C:\USERS\משתמש\CHESS_PROJECT\CHSEE\CHSEE\MAINGAME.CPP|C:\USERS\משתמש\CHESS_PROJECT\CHSEE\CHSEE\PAWN.CPP|C:\USERS\משתמש\CHESS_PROJECT\CHSEE\CHSEE\PICECONTROL.CPP|C:\USERS\משתמש\CHESS_PROJECT\CHSEE\CHSEE\POINT.CPP|C:\USERS\משתמש\CHESS_PROJECT\CHSEE\CHSEE\QUEEN.CPP|C:\USERS\משתמש\CHESS_PROJECT\CHSEE\CHSEE\REGULAR.CPP|C:\USERS\משתמש\CHESS_PROJECT\CHSEE\CHSEE\ROOK.CPP|C:\USERS\משתמש\CHESS_PROJECT\CHSEE\CHSEE\SOURCE.CPP|C:\USERS\משתמש\CHESS_PROJECT\CHSEE\CHSEE\STDAFX.CPP
C:\USERS\משתמש\CHESS_PROJECT\CHSEE\CHSEE\DEBUG\VC142.PDB
C:\USERS\משתמש\CHESS_PROJECT\CHSEE\CHSEE\DEBUG\VC142.IDB
C:\USERS\משתמש\CHESS_PROJECT\CHSEE\CHSEE\DEBUG\STDAFX.OBJ
C:\USERS\משתמש\CHESS_PROJECT\CHSEE\CHSEE\DEBUG\REGULAR.OBJ
C:\USERS\משתמש\CHESS_PROJECT\CHSEE\CHSEE\DEBUG\POINT.OBJ
C:\USERS\משתמש\CHESS_PROJECT\CHSEE\CHSEE\DEBUG\KING.OBJ
^C:\USERS\משתמש\CHESS_PROJECT\CHSEE\CHSEE\BISHOP.CPP|C:\USERS\משתמש\CHESS_PROJECT\CHSEE\CHSEE\KNIGHT.CPP|C:\USERS\משתמש\CHESS_PROJECT\CHSEE\CHSEE\MAINGAME.CPP|C:\USERS\משתמש\CHESS_PROJECT\CHSEE\CHSEE\PAWN.CPP|C:\USERS\משתמש\CHESS_PROJECT\CHSEE\CHSEE\PICECONTROL.CPP|C:\USERS\משתמש\CHESS_PROJECT\CHSEE\CHSEE\POINT.CPP|C:\USERS\משתמש\CHESS_PROJECT\CHSEE\CHSEE\QUEEN.CPP|C:\USERS\משתמש\CHESS_PROJECT\CHSEE\CHSEE\REGULAR.CPP|C:\USERS\משתמש\CHESS_PROJECT\CHSEE\CHSEE\ROOK.CPP|C:\USERS\משתמש\CHESS_PROJECT\CHSEE\CHSEE\SOURCE.CPP|C:\USERS\משתמש\CHESS_PROJECT\CHSEE\CHSEE\STDAFX.CPP
C:\USERS\משתמש\CHESS_PROJECT\CHSEE\CHSEE\DEBUG\VC142.PDB
C:\USERS\משתמש\CHESS_PROJECT\CHSEE\CHSEE\DEBUG\VC142.IDB
C:\USERS\משתמש\CHESS_PROJECT\CHSEE\CHSEE\DEBUG\STDAFX.OBJ
C:\USERS\משתמש\CHESS_PROJECT\CHSEE\CHSEE\DEBUG\REGULAR.OBJ
C:\USERS\משתמש\CHESS_PROJECT\CHSEE\CHSEE\DEBUG\POINT.OBJ
^C:\USERS\משתמש\CHESS_PROJECT\CHSEE\CHSEE\BISHOP.CPP|C:\USERS\משתמש\CHESS_PROJECT\CHSEE\CHSEE\KING.CPP|C:\USERS\משתמש\CHESS_PROJECT\CHSEE\CHSEE\KNIGHT.CPP|C:\USERS\משתמש\CHESS_PROJECT\CHSEE\CHSEE\MAINGAME.CPP|C:\USERS\משתמש\CHESS_PROJECT\CHSEE\CHSEE\PAWN.CPP|C:\USERS\משתמש\CHESS_PROJECT\CHSEE\CHSEE\PICECONTROL.CPP|C:\USERS\משתמש\CHESS_PROJECT\CHSEE\CHSEE\QUEEN.CPP|C:\USERS\משתמש\CHESS_PROJECT\CHSEE\CHSEE\REGULAR.CPP|C:\USERS\משתמש\CHESS_PROJECT\CHSEE\CHSEE\ROOK.CPP|C:\USERS\משתמש\CHESS_PROJECT\CHSEE\CHSEE\SOURCE.CPP|C:\USERS\משתמש\CHESS_PROJECT\CHSEE\CHSEE\STDAFX.CPP
C:\USERS\משתמש\CHESS_PROJECT\CHSEE\CHSEE\DEBUG\VC142.PDB
C:\USERS\משתמש\CHESS_PROJECT\CHSEE\CHSEE\DEBUG\VC142.IDB
C:\USERS\משתמש\CHESS_PROJECT\CHSEE\CHSEE\DEBUG\STDAFX.OBJ
C:\USERS\משתמש\CHESS_PROJECT\CHSEE\CHSEE\DEBUG\SOURCE.OBJ
C:\USERS\משתמש\CHESS_PROJECT\CHSEE\CHSEE\DEBUG\ROOK.OBJ
C:\USERS\משתמש\CHESS_PROJECT\CHSEE\CHSEE\DEBUG\REGULAR.OBJ
C:\USERS\משתמש\CHESS_PROJECT\CHSEE\CHSEE\DEBUG\QUEEN.OBJ
C:\USERS\משתמש\CHESS_PROJECT\CHSEE\CHSEE\DEBUG\PICECONTROL.OBJ
C:\USERS\משתמש\CHESS_PROJECT\CHSEE\CHSEE\DEBUG\PAWN.OBJ
C:\USERS\משתמש\CHESS_PROJECT\CHSEE\CHSEE\DEBUG\MAINGAME.OBJ
C:\USERS\משתמש\CHESS_PROJECT\CHSEE\CHSEE\DEBUG\KNIGHT.OBJ
C:\USERS\משתמש\CHESS_PROJECT\CHSEE\CHSEE\DEBUG\KING.OBJ
C:\USERS\משתמש\CHESS_PROJECT\CHSEE\CHSEE\DEBUG\BISHOP.OBJ
^C:\USERS\משתמש\CHESS_PROJECT\CHSEE\CHSEE\STDAFX.CPP
C:\USERS\משתמש\CHESS_PROJECT\CHSEE\CHSEE\DEBUG\VC142.PDB
^C:\USERS\משתמש\CHESS_PROJECT\CHSEE\CHSEE\BISHOP.CPP|C:\USERS\משתמש\CHESS_PROJECT\CHSEE\CHSEE\MAINGAME.CPP
C:\USERS\משתמש\CHESS_PROJECT\CHSEE\CHSEE\DEBUG\VC142.PDB
C:\USERS\משתמש\CHESS_PROJECT\CHSEE\CHSEE\DEBUG\VC142.IDB
C:\USERS\משתמש\CHESS_PROJECT\CHSEE\CHSEE\DEBUG\MAINGAME.OBJ
C:\USERS\משתמש\CHESS_PROJECT\CHSEE\CHSEE\DEBUG\BISHOP.OBJ
^C:\USERS\משתמש\CHESS_PROJECT\CHSEE\CHSEE\MAINGAME.CPP|C:\USERS\משתמש\CHESS_PROJECT\CHSEE\CHSEE\SOURCE.CPP
C:\USERS\משתמש\CHESS_PROJECT\CHSEE\CHSEE\DEBUG\VC142.PDB
C:\USERS\משתמש\CHESS_PROJECT\CHSEE\CHSEE\DEBUG\VC142.IDB
C:\USERS\משתמש\CHESS_PROJECT\CHSEE\CHSEE\DEBUG\SOURCE.OBJ
C:\USERS\משתמש\CHESS_PROJECT\CHSEE\CHSEE\DEBUG\MAINGAME.OBJ
^C:\USERS\משתמש\CHESS_PROJECT\CHSEE\CHSEE\KING.CPP|C:\USERS\משתמש\CHESS_PROJECT\CHSEE\CHSEE\KNIGHT.CPP|C:\USERS\משתמש\CHESS_PROJECT\CHSEE\CHSEE\MAINGAME.CPP|C:\USERS\משתמש\CHESS_PROJECT\CHSEE\CHSEE\PAWN.CPP|C:\USERS\משתמש\CHESS_PROJECT\CHSEE\CHSEE\SOURCE.CPP
C:\USERS\משתמש\CHESS_PROJECT\CHSEE\CHSEE\DEBUG\VC142.PDB
C:\USERS\משתמש\CHESS_PROJECT\CHSEE\CHSEE\DEBUG\VC142.IDB
C:\USERS\משתמש\CHESS_PROJECT\CHSEE\CHSEE\DEBUG\PAWN.OBJ
C:\USERS\משתמש\CHESS_PROJECT\CHSEE\CHSEE\DEBUG\MAINGAME.OBJ
C:\USERS\משתמש\CHESS_PROJECT\CHSEE\CHSEE\DEBUG\KNIGHT.OBJ
C:\USERS\משתמש\CHESS_PROJECT\CHSEE\CHSEE\DEBUG\KING.OBJ
^C:\USERS\משתמש\CHESS_PROJECT\CHSEE\CHSEE\KING.CPP|C:\USERS\משתמש\CHESS_PROJECT\CHSEE\CHSEE\MAINGAME.CPP|C:\USERS\משתמש\CHESS_PROJECT\CHSEE\CHSEE\SOURCE.CPP
C:\USERS\משתמש\CHESS_PROJECT\CHSEE\CHSEE\DEBUG\VC142.PDB
C:\USERS\משתמש\CHESS_PROJECT\CHSEE\CHSEE\DEBUG\VC142.IDB
C:\USERS\משתמש\CHESS_PROJECT\CHSEE\CHSEE\DEBUG\SOURCE.OBJ
C:\USERS\משתמש\CHESS_PROJECT\CHSEE\CHSEE\DEBUG\MAINGAME.OBJ
C:\USERS\משתמש\CHESS_PROJECT\CHSEE\CHSEE\DEBUG\KING.OBJ
^C:\USERS\משתמש\CHESS_PROJECT\CHSEE\CHSEE\BISHOP.CPP|C:\USERS\משתמש\CHESS_PROJECT\CHSEE\CHSEE\KING.CPP|C:\USERS\משתמש\CHESS_PROJECT\CHSEE\CHSEE\KNIGHT.CPP|C:\USERS\משתמש\CHESS_PROJECT\CHSEE\CHSEE\MAINGAME.CPP|C:\USERS\משתמש\CHESS_PROJECT\CHSEE\CHSEE\PAWN.CPP|C:\USERS\משתמש\CHESS_PROJECT\CHSEE\CHSEE\PICECONTROL.CPP|C:\USERS\משתמש\CHESS_PROJECT\CHSEE\CHSEE\POINT.CPP|C:\USERS\משתמש\CHESS_PROJECT\CHSEE\CHSEE\QUEEN.CPP|C:\USERS\משתמש\CHESS_PROJECT\CHSEE\CHSEE\ROOK.CPP|C:\USERS\משתמש\CHESS_PROJECT\CHSEE\CHSEE\SOURCE.CPP
C:\USERS\משתמש\CHESS_PROJECT\CHSEE\CHSEE\DEBUG\VC142.PDB
C:\USERS\משתמש\CHESS_PROJECT\CHSEE\CHSEE\DEBUG\VC142.IDB
C:\USERS\משתמש\CHESS_PROJECT\CHSEE\CHSEE\DEBUG\SOURCE.OBJ
C:\USERS\משתמש\CHESS_PROJECT\CHSEE\CHSEE\DEBUG\ROOK.OBJ
C:\USERS\משתמש\CHESS_PROJECT\CHSEE\CHSEE\DEBUG\QUEEN.OBJ
C:\USERS\משתמש\CHESS_PROJECT\CHSEE\CHSEE\DEBUG\POINT.OBJ
C:\USERS\משתמש\CHESS_PROJECT\CHSEE\CHSEE\DEBUG\PICECONTROL.OBJ
C:\USERS\משתמש\CHESS_PROJECT\CHSEE\CHSEE\DEBUG\PAWN.OBJ
C:\USERS\משתמש\CHESS_PROJECT\CHSEE\CHSEE\DEBUG\MAINGAME.OBJ
C:\USERS\משתמש\CHESS_PROJECT\CHSEE\CHSEE\DEBUG\KNIGHT.OBJ
C:\USERS\משתמש\CHESS_PROJECT\CHSEE\CHSEE\DEBUG\KING.OBJ
C:\USERS\משתמש\CHESS_PROJECT\CHSEE\CHSEE\DEBUG\BISHOP.OBJ
^C:\USERS\משתמש\CHESS_PROJECT\CHSEE\CHSEE\POINT.CPP
C:\USERS\משתמש\CHESS_PROJECT\CHSEE\CHSEE\DEBUG\VC142.PDB
^C:\USERS\משתמש\CHESS_PROJECT\CHSEE\CHSEE\BISHOP.CPP|C:\USERS\משתמש\CHESS_PROJECT\CHSEE\CHSEE\KING.CPP|C:\USERS\משתמש\CHESS_PROJECT\CHSEE\CHSEE\KNIGHT.CPP|C:\USERS\משתמש\CHESS_PROJECT\CHSEE\CHSEE\MAINGAME.CPP|C:\USERS\משתמש\CHESS_PROJECT\CHSEE\CHSEE\PAWN.CPP|C:\USERS\משתמש\CHESS_PROJECT\CHSEE\CHSEE\PICECONTROL.CPP|C:\USERS\משתמש\CHESS_PROJECT\CHSEE\CHSEE\QUEEN.CPP|C:\USERS\משתמש\CHESS_PROJECT\CHSEE\CHSEE\ROOK.CPP|C:\USERS\משתמש\CHESS_PROJECT\CHSEE\CHSEE\SOURCE.CPP
C:\USERS\משתמש\CHESS_PROJECT\CHSEE\CHSEE\DEBUG\VC142.PDB
C:\USERS\משתמש\CHESS_PROJECT\CHSEE\CHSEE\DEBUG\VC142.IDB
C:\USERS\משתמש\CHESS_PROJECT\CHSEE\CHSEE\DEBUG\SOURCE.OBJ
C:\USERS\משתמש\CHESS_PROJECT\CHSEE\CHSEE\DEBUG\ROOK.OBJ
C:\USERS\משתמש\CHESS_PROJECT\CHSEE\CHSEE\DEBUG\QUEEN.OBJ
C:\USERS\משתמש\CHESS_PROJECT\CHSEE\CHSEE\DEBUG\PICECONTROL.OBJ
C:\USERS\משתמש\CHESS_PROJECT\CHSEE\CHSEE\DEBUG\PAWN.OBJ
C:\USERS\משתמש\CHESS_PROJECT\CHSEE\CHSEE\DEBUG\MAINGAME.OBJ
C:\USERS\משתמש\CHESS_PROJECT\CHSEE\CHSEE\DEBUG\KNIGHT.OBJ
C:\USERS\משתמש\CHESS_PROJECT\CHSEE\CHSEE\DEBUG\KING.OBJ
C:\USERS\משתמש\CHESS_PROJECT\CHSEE\CHSEE\DEBUG\BISHOP.OBJ
^C:\USERS\משתמש\CHESS_PROJECT\CHSEE\CHSEE\BISHOP.CPP
C:\USERS\משתמש\CHESS_PROJECT\CHSEE\CHSEE\DEBUG\VC142.PDB
^C:\USERS\משתמש\CHESS_PROJECT\CHSEE\CHSEE\KING.CPP
C:\USERS\משתמש\CHESS_PROJECT\CHSEE\CHSEE\DEBUG\VC142.PDB
^C:\USERS\משתמש\CHESS_PROJECT\CHSEE\CHSEE\KNIGHT.CPP
C:\USERS\משתמש\CHESS_PROJECT\CHSEE\CHSEE\DEBUG\VC142.PDB
^C:\USERS\משתמש\CHESS_PROJECT\CHSEE\CHSEE\PICECONTROL.CPP
C:\USERS\משתמש\CHESS_PROJECT\CHSEE\CHSEE\DEBUG\VC142.PDB
^C:\USERS\משתמש\CHESS_PROJECT\CHSEE\CHSEE\QUEEN.CPP
C:\USERS\משתמש\CHESS_PROJECT\CHSEE\CHSEE\DEBUG\VC142.PDB
^C:\USERS\משתמש\CHESS_PROJECT\CHSEE\CHSEE\ROOK.CPP
C:\USERS\משתמש\CHESS_PROJECT\CHSEE\CHSEE\DEBUG\VC142.PDB
^C:\USERS\משתמש\CHESS_PROJECT\CHSEE\CHSEE\SOURCE.CPP
C:\USERS\משתמש\CHESS_PROJECT\CHSEE\CHSEE\DEBUG\VC142.PDB
^C:\USERS\משתמש\CHESS_PROJECT\CHSEE\CHSEE\MAINGAME.CPP|C:\USERS\משתמש\CHESS_PROJECT\CHSEE\CHSEE\PAWN.CPP
C:\USERS\משתמש\CHESS_PROJECT\CHSEE\CHSEE\DEBUG\VC142.PDB
C:\USERS\משתמש\CHESS_PROJECT\CHSEE\CHSEE\DEBUG\VC142.IDB
C:\USERS\משתמש\CHESS_PROJECT\CHSEE\CHSEE\DEBUG\PAWN.OBJ
C:\USERS\משתמש\CHESS_PROJECT\CHSEE\CHSEE\DEBUG\MAINGAME.OBJ
^C:\USERS\משתמש\CHESS_PROJECT\CHSEE\CHSEE\PAWN.CPP
C:\USERS\משתמש\CHESS_PROJECT\CHSEE\CHSEE\DEBUG\VC142.PDB
C:\USERS\משתמש\CHESS_PROJECT\CHSEE\CHSEE\DEBUG\VC142.IDB
C:\USERS\משתמש\CHESS_PROJECT\CHSEE\CHSEE\DEBUG\PAWN.OBJ
^C:\USERS\משתמש\CHESS_PROJECT\CHSEE\CHSEE\MAINGAME.CPP
C:\USERS\משתמש\CHESS_PROJECT\CHSEE\CHSEE\DEBUG\VC142.PDB
C:\USERS\משתמש\CHESS_PROJECT\CHSEE\CHSEE\DEBUG\VC142.IDB
C:\USERS\משתמש\CHESS_PROJECT\CHSEE\CHSEE\DEBUG\MAINGAME.OBJ
